simulation/qsim/7seg_display_cnt10.msim.vcd
$comment
	File created using the following command:
		vcd file 7seg_display_cnt10.msim.vcd -direction
$end
$date
	Fri Jun 15 20:44:58 2018
$end
$version
	ModelSim Version 10.1d
$end
$timescale
	1ps
$end
$scope module m200_vlg_vec_tst $end
$var reg 1 ! CLOCK1 $end
$var wire 1 " carry $end
$var wire 1 # sampler $end
$scope module i1 $end
$var wire 1 $ gnd $end
$var wire 1 % vcc $end
$var wire 1 & unknown $end
$var tri1 1 ' devclrn $end
$var tri1 1 ( devpor $end
$var tri1 1 ) devoe $end
$var wire 1 * carry~output_o $end
$var wire 1 + CLOCK1~input_o $end
$var wire 1 , CLOCK1~inputclkctrl_outclk $end
$var wire 1 - inst|inst|7~0_combout $end
$var wire 1 . inst|inst|7~feeder_combout $end
$var wire 1 / inst|inst1~feeder_combout $end
$var wire 1 0 inst|inst1~q $end
$var wire 1 1 inst|inst|7~q $end
$var wire 1 2 inst|inst|20~combout $end
$var wire 1 3 inst|inst|6~0_combout $end
$var wire 1 4 inst|inst|6~q $end
$var wire 1 5 inst|inst|5~0_combout $end
$var wire 1 6 inst|inst|5~q $end
$var wire 1 7 inst|inst|3~0_combout $end
$var wire 1 8 inst|inst|3~feeder_combout $end
$var wire 1 9 inst|inst|3~q $end
$var wire 1 : inst|inst|3~clkctrl_outclk $end
$var wire 1 ; inst8|7~0_combout $end
$var wire 1 < inst8|7~feeder_combout $end
$var wire 1 = inst2~feeder_combout $end
$var wire 1 > inst2~q $end
$var wire 1 ? inst8|7~q $end
$var wire 1 @ inst8|20~combout $end
$var wire 1 A inst8|6~0_combout $end
$var wire 1 B inst8|6~feeder_combout $end
$var wire 1 C inst8|6~q $end
$var wire 1 D inst8|5~0_combout $end
$var wire 1 E inst8|5~q $end
$var wire 1 F inst8|3~0_combout $end
$var wire 1 G inst8|3~q $end
$var wire 1 H inst8|34~0_combout $end
$var wire 1 I inst8|34~feeder_combout $end
$var wire 1 J inst8|34~q $end
$var wire 1 K inst8|32~0_combout $end
$var wire 1 L inst8|32~q $end
$var wire 1 M inst8|31~0_combout $end
$var wire 1 N inst8|31~feeder_combout $end
$var wire 1 O inst8|31~q $end
$var wire 1 P inst8|29~combout $end
$var wire 1 Q inst8|33~0_combout $end
$var wire 1 R inst8|33~feeder_combout $end
$var wire 1 S inst8|33~q $end
$var wire 1 T inst1~0_combout $end
$upscope $end
$upscope $end
$enddefinitions $end
#0
$dumpvars
0!
x"
x#
0$
1%
x&
1'
1(
1)
x*
0+
x,
x-
x.
1/
00
01
x2
x3
04
15
06
x7
x8
09
x:
x;
x<
1=
0>
0?
x@
xA
xB
0C
1D
0E
xF
0G
xH
xI
0J
1K
0L
xM
xN
0O
xP
xQ
xR
0S
xT
$end
#189
0,
#521
07
#580
1P
#581
1@
#700
0F
#703
0M
#726
12
#877
13
1H
#933
08
#1000
1!
0#
#1018
1A
#1039
0T
#1106
1Q
#1114
0N
#1633
1-
#1651
1I
#1812
1;
#1835
0:
#1990
1+
#1999
1B
#2000
0!
1#
#2069
1R
#2190
1,
#3000
1!
0#
#3267
1.
#3658
1<
#4000
0!
1#
#4298
10
#4382
0*
0"
#5000
1!
0#
#6000
0!
1#
#7000
1!
0#
#8000
0!
1#
#9000
1!
0#
#10000
0!
1#
#11000
1!
0#
#12000
0!
1#
#13000
1!
0#
#14000
0!
1#
#15000
1!
0#
#16000
0!
1#
#17000
1!
0#
#18000
0!
1#
#19000
1!
0#
#20000
0!
1#
#21000
1!
0#
#22000
0!
1#
#23000
1!
0#
#24000
0!
1#
#25000
1!
0#
#26000
0!
1#
#27000
1!
0#
#28000
0!
1#
#29000
1!
0#
#30000
0!
1#
#31000
1!
0#
#32000
0!
1#
#33000
1!
0#
#34000
0!
1#
#35000
1!
0#
#36000
0!
1#
#37000
1!
0#
#38000
0!
1#
#39000
1!
0#
#40000
0!
1#
#41000
1!
0#
#42000
0!
1#
#43000
1!
0#
#44000
0!
1#
#45000
1!
0#
#46000
0!
1#
#47000
1!
0#
#48000
0!
1#
#49000
1!
0#
#50000
0!
1#
#51000
1!
0#
#52000
0!
1#
#53000
1!
0#
#54000
0!
1#
#55000
1!
0#
#56000
0!
1#
#57000
1!
0#
#58000
0!
1#
#59000
1!
0#
#60000
0!
1#
#61000
1!
0#
#62000
0!
1#
#63000
1!
0#
#64000
0!
1#
#65000
1!
0#
#66000
0!
1#
#67000
1!
0#
#68000
0!
1#
#69000
1!
0#
#70000
0!
1#
#71000
1!
0#
#72000
0!
1#
#73000
1!
0#
#74000
0!
1#
#75000
1!
0#
#76000
0!
1#
#77000
1!
0#
#78000
0!
1#
#79000
1!
0#
#80000
0!
1#
#81000
1!
0#
#82000
0!
1#
#83000
1!
0#
#84000
0!
1#
#85000
1!
0#
#86000
0!
1#
#87000
1!
0#
#88000
0!
1#
#89000
1!
0#
#90000
0!
1#
#91000
1!
0#
#92000
0!
1#
#93000
1!
0#
#94000
0!
1#
#95000
1!
0#
#96000
0!
1#
#97000
1!
0#
#98000
0!
1#
#99000
1!
0#
#100000
0!
1#
#101000
1!
0#
#102000
0!
1#
#103000
1!
0#
#104000
0!
1#
#105000
1!
0#
#106000
0!
1#
#107000
1!
0#
#108000
0!
1#
#109000
1!
0#
#110000
0!
1#
#111000
1!
0#
#112000
0!
1#
#113000
1!
0#
#114000
0!
1#
#115000
1!
0#
#116000
0!
1#
#117000
1!
0#
#118000
0!
1#
#119000
1!
0#
#120000
0!
1#
#121000
1!
0#
#122000
0!
1#
#123000
1!
0#
#124000
0!
1#
#125000
1!
0#
#126000
0!
1#
#127000
1!
0#
#128000
0!
1#
#129000
1!
0#
#130000
0!
1#
#131000
1!
0#
#132000
0!
1#
#133000
1!
0#
#134000
0!
1#
#135000
1!
0#
#136000
0!
1#
#137000
1!
0#
#138000
0!
1#
#139000
1!
0#
#140000
0!
1#
#141000
1!
0#
#142000
0!
1#
#143000
1!
0#
#144000
0!
1#
#145000
1!
0#
#146000
0!
1#
#147000
1!
0#
#148000
0!
1#
#149000
1!
0#
#150000
0!
1#
#151000
1!
0#
#152000
0!
1#
#153000
1!
0#
#154000
0!
1#
#155000
1!
0#
#156000
0!
1#
#157000
1!
0#
#158000
0!
1#
#159000
1!
0#
#160000
0!
1#
#161000
1!
0#
#162000
0!
1#
#163000
1!
0#
#164000
0!
1#
#165000
1!
0#
#166000
0!
1#
#167000
1!
0#
#168000
0!
1#
#169000
1!
0#
#170000
0!
1#
#171000
1!
0#
#172000
0!
1#
#173000
1!
0#
#174000
0!
1#
#175000
1!
0#
#176000
0!
1#
#177000
1!
0#
#178000
0!
1#
#179000
1!
0#
#180000
0!
1#
#181000
1!
0#
#182000
0!
1#
#183000
1!
0#
#184000
0!
1#
#185000
1!
0#
#186000
0!
1#
#187000
1!
0#
#188000
0!
1#
#189000
1!
0#
#190000
0!
1#
#191000
1!
0#
#192000
0!
1#
#193000
1!
0#
#194000
0!
1#
#195000
1!
0#
#196000
0!
1#
#197000
1!
0#
#198000
0!
1#
#199000
1!
0#
#200000
0!
1#
#201000
1!
0#
#202000
0!
1#
#203000
1!
0#
#204000
0!
1#
#205000
1!
0#
#206000
0!
1#
#207000
1!
0#
#208000
0!
1#
#209000
1!
0#
#210000
0!
1#
#211000
1!
0#
#212000
0!
1#
#213000
1!
0#
#214000
0!
1#
#215000
1!
0#
#216000
0!
1#
#217000
1!
0#
#218000
0!
1#
#219000
1!
0#
#220000
0!
1#
#221000
1!
0#
#222000
0!
1#
#223000
1!
0#
#224000
0!
1#
#225000
1!
0#
#226000
0!
1#
#227000
1!
0#
#228000
0!
1#
#229000
1!
0#
#230000
0!
1#
#231000
1!
0#
#232000
0!
1#
#233000
1!
0#
#234000
0!
1#
#235000
1!
0#
#236000
0!
1#
#237000
1!
0#
#238000
0!
1#
#239000
1!
0#
#240000
0!
1#
#241000
1!
0#
#242000
0!
1#
#243000
1!
0#
#244000
0!
1#
#245000
1!
0#
#246000
0!
1#
#247000
1!
0#
#248000
0!
1#
#249000
1!
0#
#250000
0!
1#
#251000
1!
0#
#252000
0!
1#
#253000
1!
0#
#254000
0!
1#
#255000
1!
0#
#256000
0!
1#
#257000
1!
0#
#258000
0!
1#
#259000
1!
0#
#260000
0!
1#
#261000
1!
0#
#262000
0!
1#
#263000
1!
0#
#264000
0!
1#
#265000
1!
0#
#266000
0!
1#
#267000
1!
0#
#268000
0!
1#
#269000
1!
0#
#270000
0!
1#
#271000
1!
0#
#272000
0!
1#
#273000
1!
0#
#274000
0!
1#
#275000
1!
0#
#276000
0!
1#
#277000
1!
0#
#278000
0!
1#
#279000
1!
0#
#280000
0!
1#
#281000
1!
0#
#282000
0!
1#
#283000
1!
0#
#284000
0!
1#
#285000
1!
0#
#286000
0!
1#
#287000
1!
0#
#288000
0!
1#
#289000
1!
0#
#290000
0!
1#
#291000
1!
0#
#292000
0!
1#
#293000
1!
0#
#294000
0!
1#
#295000
1!
0#
#296000
0!
1#
#297000
1!
0#
#298000
0!
1#
#299000
1!
0#
#300000
0!
1#
#301000
1!
0#
#302000
0!
1#
#303000
1!
0#
#304000
0!
1#
#305000
1!
0#
#306000
0!
1#
#307000
1!
0#
#308000
0!
1#
#309000
1!
0#
#310000
0!
1#
#311000
1!
0#
#312000
0!
1#
#313000
1!
0#
#314000
0!
1#
#315000
1!
0#
#316000
0!
1#
#317000
1!
0#
#318000
0!
1#
#319000
1!
0#
#320000
0!
1#
#321000
1!
0#
#322000
0!
1#
#323000
1!
0#
#324000
0!
1#
#325000
1!
0#
#326000
0!
1#
#327000
1!
0#
#328000
0!
1#
#329000
1!
0#
#330000
0!
1#
#331000
1!
0#
#332000
0!
1#
#333000
1!
0#
#334000
0!
1#
#335000
1!
0#
#336000
0!
1#
#337000
1!
0#
#338000
0!
1#
#339000
1!
0#
#340000
0!
1#
#341000
1!
0#
#342000
0!
1#
#343000
1!
0#
#344000
0!
1#
#345000
1!
0#
#346000
0!
1#
#347000
1!
0#
#348000
0!
1#
#349000
1!
0#
#350000
0!
1#
#351000
1!
0#
#352000
0!
1#
#353000
1!
0#
#354000
0!
1#
#355000
1!
0#
#356000
0!
1#
#357000
1!
0#
#358000
0!
1#
#359000
1!
0#
#360000
0!
1#
#361000
1!
0#
#362000
0!
1#
#363000
1!
0#
#364000
0!
1#
#365000
1!
0#
#366000
0!
1#
#367000
1!
0#
#368000
0!
1#
#369000
1!
0#
#370000
0!
1#
#371000
1!
0#
#372000
0!
1#
#373000
1!
0#
#374000
0!
1#
#375000
1!
0#
#376000
0!
1#
#377000
1!
0#
#378000
0!
1#
#379000
1!
0#
#380000
0!
1#
#381000
1!
0#
#382000
0!
1#
#383000
1!
0#
#384000
0!
1#
#385000
1!
0#
#386000
0!
1#
#387000
1!
0#
#388000
0!
1#
#389000
1!
0#
#390000
0!
1#
#391000
1!
0#
#392000
0!
1#
#393000
1!
0#
#394000
0!
1#
#395000
1!
0#
#396000
0!
1#
#397000
1!
0#
#398000
0!
1#
#399000
1!
0#
#400000
0!
1#
#401000
1!
0#
#402000
0!
1#
#403000
1!
0#
#404000
0!
1#
#405000
1!
0#
#406000
0!
1#
#407000
1!
0#
#408000
0!
1#
#409000
1!
0#
#410000
0!
1#
#411000
1!
0#
#412000
0!
1#
#413000
1!
0#
#414000
0!
1#
#415000
1!
0#
#416000
0!
1#
#417000
1!
0#
#418000
0!
1#
#419000
1!
0#
#420000
0!
1#
#421000
1!
0#
#422000
0!
1#
#423000
1!
0#
#424000
0!
1#
#425000
1!
0#
#426000
0!
1#
#427000
1!
0#
#428000
0!
1#
#429000
1!
0#
#430000
0!
1#
#431000
1!
0#
#432000
0!
1#
#433000
1!
0#
#434000
0!
1#
#435000
1!
0#
#436000
0!
1#
#437000
1!
0#
#438000
0!
1#
#439000
1!
0#
#440000
0!
1#
#441000
1!
0#
#442000
0!
1#
#443000
1!
0#
#444000
0!
1#
#445000
1!
0#
#446000
0!
1#
#447000
1!
0#
#448000
0!
1#
#449000
1!
0#
#450000
0!
1#
#451000
1!
0#
#452000
0!
1#
#453000
1!
0#
#454000
0!
1#
#455000
1!
0#
#456000
0!
1#
#457000
1!
0#
#458000
0!
1#
#459000
1!
0#
#460000
0!
1#
#461000
1!
0#
#462000
0!
1#
#463000
1!
0#
#464000
0!
1#
#465000
1!
0#
#466000
0!
1#
#467000
1!
0#
#468000
0!
1#
#469000
1!
0#
#470000
0!
1#
#471000
1!
0#
#472000
0!
1#
#473000
1!
0#
#474000
0!
1#
#475000
1!
0#
#476000
0!
1#
#477000
1!
0#
#478000
0!
1#
#479000
1!
0#
#480000
0!
1#
#481000
1!
0#
#482000
0!
1#
#483000
1!
0#
#484000
0!
1#
#485000
1!
0#
#486000
0!
1#
#487000
1!
0#
#488000
0!
1#
#489000
1!
0#
#490000
0!
1#
#491000
1!
0#
#492000
0!
1#
#493000
1!
0#
#494000
0!
1#
#495000
1!
0#
#496000
0!
1#
#497000
1!
0#
#498000
0!
1#
#499000
1!
0#
#500000
0!
1#
#501000
1!
0#
#502000
0!
1#
#503000
1!
0#
#504000
0!
1#
#505000
1!
0#
#506000
0!
1#
#507000
1!
0#
#508000
0!
1#
#509000
1!
0#
#510000
0!
1#
#511000
1!
0#
#512000
0!
1#
#513000
1!
0#
#514000
0!
1#
#515000
1!
0#
#516000
0!
1#
#517000
1!
0#
#518000
0!
1#
#519000
1!
0#
#520000
0!
1#
#521000
1!
0#
#522000
0!
1#
#523000
1!
0#
#524000
0!
1#
#525000
1!
0#
#526000
0!
1#
#527000
1!
0#
#528000
0!
1#
#529000
1!
0#
#530000
0!
1#
#531000
1!
0#
#532000
0!
1#
#533000
1!
0#
#534000
0!
1#
#535000
1!
0#
#536000
0!
1#
#537000
1!
0#
#538000
0!
1#
#539000
1!
0#
#540000
0!
1#
#541000
1!
0#
#542000
0!
1#
#543000
1!
0#
#544000
0!
1#
#545000
1!
0#
#546000
0!
1#
#547000
1!
0#
#548000
0!
1#
#549000
1!
0#
#550000
0!
1#
#551000
1!
0#
#552000
0!
1#
#553000
1!
0#
#554000
0!
1#
#555000
1!
0#
#556000
0!
1#
#557000
1!
0#
#558000
0!
1#
#559000
1!
0#
#560000
0!
1#
#561000
1!
0#
#562000
0!
1#
#563000
1!
0#
#564000
0!
1#
#565000
1!
0#
#566000
0!
1#
#567000
1!
0#
#568000
0!
1#
#569000
1!
0#
#570000
0!
1#
#571000
1!
0#
#572000
0!
1#
#573000
1!
0#
#574000
0!
1#
#575000
1!
0#
#576000
0!
1#
#577000
1!
0#
#578000
0!
1#
#579000
1!
0#
#580000
0!
1#
#581000
1!
0#
#582000
0!
1#
#583000
1!
0#
#584000
0!
1#
#585000
1!
0#
#586000
0!
1#
#587000
1!
0#
#588000
0!
1#
#589000
1!
0#
#590000
0!
1#
#591000
1!
0#
#592000
0!
1#
#593000
1!
0#
#594000
0!
1#
#595000
1!
0#
#596000
0!
1#
#597000
1!
0#
#598000
0!
1#
#599000
1!
0#
#600000
0!
1#
#601000
1!
0#
#602000
0!
1#
#603000
1!
0#
#604000
0!
1#
#605000
1!
0#
#606000
0!
1#
#607000
1!
0#
#608000
0!
1#
#609000
1!
0#
#610000
0!
1#
#611000
1!
0#
#612000
0!
1#
#613000
1!
0#
#614000
0!
1#
#615000
1!
0#
#616000
0!
1#
#617000
1!
0#
#618000
0!
1#
#619000
1!
0#
#620000
0!
1#
#621000
1!
0#
#622000
0!
1#
#623000
1!
0#
#624000
0!
1#
#625000
1!
0#
#626000
0!
1#
#627000
1!
0#
#628000
0!
1#
#629000
1!
0#
#630000
0!
1#
#631000
1!
0#
#632000
0!
1#
#633000
1!
0#
#634000
0!
1#
#635000
1!
0#
#636000
0!
1#
#637000
1!
0#
#638000
0!
1#
#639000
1!
0#
#640000
0!
1#
#641000
1!
0#
#642000
0!
1#
#643000
1!
0#
#644000
0!
1#
#645000
1!
0#
#646000
0!
1#
#647000
1!
0#
#648000
0!
1#
#649000
1!
0#
#650000
0!
1#
#651000
1!
0#
#652000
0!
1#
#653000
1!
0#
#654000
0!
1#
#655000
1!
0#
#656000
0!
1#
#657000
1!
0#
#658000
0!
1#
#659000
1!
0#
#660000
0!
1#
#661000
1!
0#
#662000
0!
1#
#663000
1!
0#
#664000
0!
1#
#665000
1!
0#
#666000
0!
1#
#667000
1!
0#
#668000
0!
1#
#669000
1!
0#
#670000
0!
1#
#671000
1!
0#
#672000
0!
1#
#673000
1!
0#
#674000
0!
1#
#675000
1!
0#
#676000
0!
1#
#677000
1!
0#
#678000
0!
1#
#679000
1!
0#
#680000
0!
1#
#681000
1!
0#
#682000
0!
1#
#683000
1!
0#
#684000
0!
1#
#685000
1!
0#
#686000
0!
1#
#687000
1!
0#
#688000
0!
1#
#689000
1!
0#
#690000
0!
1#
#691000
1!
0#
#692000
0!
1#
#693000
1!
0#
#694000
0!
1#
#695000
1!
0#
#696000
0!
1#
#697000
1!
0#
#698000
0!
1#
#699000
1!
0#
#700000
0!
1#
#701000
1!
0#
#702000
0!
1#
#703000
1!
0#
#704000
0!
1#
#705000
1!
0#
#706000
0!
1#
#707000
1!
0#
#708000
0!
1#
#709000
1!
0#
#710000
0!
1#
#711000
1!
0#
#712000
0!
1#
#713000
1!
0#
#714000
0!
1#
#715000
1!
0#
#716000
0!
1#
#717000
1!
0#
#718000
0!
1#
#719000
1!
0#
#720000
0!
1#
#721000
1!
0#
#722000
0!
1#
#723000
1!
0#
#724000
0!
1#
#725000
1!
0#
#726000
0!
1#
#727000
1!
0#
#728000
0!
1#
#729000
1!
0#
#730000
0!
1#
#731000
1!
0#
#732000
0!
1#
#733000
1!
0#
#734000
0!
1#
#735000
1!
0#
#736000
0!
1#
#737000
1!
0#
#738000
0!
1#
#739000
1!
0#
#740000
0!
1#
#741000
1!
0#
#742000
0!
1#
#743000
1!
0#
#744000
0!
1#
#745000
1!
0#
#746000
0!
1#
#747000
1!
0#
#748000
0!
1#
#749000
1!
0#
#750000
0!
1#
#751000
1!
0#
#752000
0!
1#
#753000
1!
0#
#754000
0!
1#
#755000
1!
0#
#756000
0!
1#
#757000
1!
0#
#758000
0!
1#
#759000
1!
0#
#760000
0!
1#
#761000
1!
0#
#762000
0!
1#
#763000
1!
0#
#764000
0!
1#
#765000
1!
0#
#766000
0!
1#
#767000
1!
0#
#768000
0!
1#
#769000
1!
0#
#770000
0!
1#
#771000
1!
0#
#772000
0!
1#
#773000
1!
0#
#774000
0!
1#
#775000
1!
0#
#776000
0!
1#
#777000
1!
0#
#778000
0!
1#
#779000
1!
0#
#780000
0!
1#
#781000
1!
0#
#782000
0!
1#
#783000
1!
0#
#784000
0!
1#
#785000
1!
0#
#786000
0!
1#
#787000
1!
0#
#788000
0!
1#
#789000
1!
0#
#790000
0!
1#
#791000
1!
0#
#792000
0!
1#
#793000
1!
0#
#794000
0!
1#
#795000
1!
0#
#796000
0!
1#
#797000
1!
0#
#798000
0!
1#
#799000
1!
0#
#800000
0!
1#
#801000
1!
0#
#802000
0!
1#
#803000
1!
0#
#804000
0!
1#
#805000
1!
0#
#806000
0!
1#
#807000
1!
0#
#808000
0!
1#
#809000
1!
0#
#810000
0!
1#
#811000
1!
0#
#812000
0!
1#
#813000
1!
0#
#814000
0!
1#
#815000
1!
0#
#816000
0!
1#
#817000
1!
0#
#818000
0!
1#
#819000
1!
0#
#820000
0!
1#
#821000
1!
0#
#822000
0!
1#
#823000
1!
0#
#824000
0!
1#
#825000
1!
0#
#826000
0!
1#
#827000
1!
0#
#828000
0!
1#
#829000
1!
0#
#830000
0!
1#
#831000
1!
0#
#832000
0!
1#
#833000
1!
0#
#834000
0!
1#
#835000
1!
0#
#836000
0!
1#
#837000
1!
0#
#838000
0!
1#
#839000
1!
0#
#840000
0!
1#
#841000
1!
0#
#842000
0!
1#
#843000
1!
0#
#844000
0!
1#
#845000
1!
0#
#846000
0!
1#
#847000
1!
0#
#848000
0!
1#
#849000
1!
0#
#850000
0!
1#
#851000
1!
0#
#852000
0!
1#
#853000
1!
0#
#854000
0!
1#
#855000
1!
0#
#856000
0!
1#
#857000
1!
0#
#858000
0!
1#
#859000
1!
0#
#860000
0!
1#
#861000
1!
0#
#862000
0!
1#
#863000
1!
0#
#864000
0!
1#
#865000
1!
0#
#866000
0!
1#
#867000
1!
0#
#868000
0!
1#
#869000
1!
0#
#870000
0!
1#
#871000
1!
0#
#872000
0!
1#
#873000
1!
0#
#874000
0!
1#
#875000
1!
0#
#876000
0!
1#
#877000
1!
0#
#878000
0!
1#
#879000
1!
0#
#880000
0!
1#
#881000
1!
0#
#882000
0!
1#
#883000
1!
0#
#884000
0!
1#
#885000
1!
0#
#886000
0!
1#
#887000
1!
0#
#888000
0!
1#
#889000
1!
0#
#890000
0!
1#
#891000
1!
0#
#892000
0!
1#
#893000
1!
0#
#894000
0!
1#
#895000
1!
0#
#896000
0!
1#
#897000
1!
0#
#898000
0!
1#
#899000
1!
0#
#900000
0!
1#
#901000
1!
0#
#902000
0!
1#
#903000
1!
0#
#904000
0!
1#
#905000
1!
0#
#906000
0!
1#
#907000
1!
0#
#908000
0!
1#
#909000
1!
0#
#910000
0!
1#
#911000
1!
0#
#912000
0!
1#
#913000
1!
0#
#914000
0!
1#
#915000
1!
0#
#916000
0!
1#
#917000
1!
0#
#918000
0!
1#
#919000
1!
0#
#920000
0!
1#
#921000
1!
0#
#922000
0!
1#
#923000
1!
0#
#924000
0!
1#
#925000
1!
0#
#926000
0!
1#
#927000
1!
0#
#928000
0!
1#
#929000
1!
0#
#930000
0!
1#
#931000
1!
0#
#932000
0!
1#
#933000
1!
0#
#934000
0!
1#
#935000
1!
0#
#936000
0!
1#
#937000
1!
0#
#938000
0!
1#
#939000
1!
0#
#940000
0!
1#
#941000
1!
0#
#942000
0!
1#
#943000
1!
0#
#944000
0!
1#
#945000
1!
0#
#946000
0!
1#
#947000
1!
0#
#948000
0!
1#
#949000
1!
0#
#950000
0!
1#
#951000
1!
0#
#952000
0!
1#
#953000
1!
0#
#954000
0!
1#
#955000
1!
0#
#956000
0!
1#
#957000
1!
0#
#958000
0!
1#
#959000
1!
0#
#960000
0!
1#
#961000
1!
0#
#962000
0!
1#
#963000
1!
0#
#964000
0!
1#
#965000
1!
0#
#966000
0!
1#
#967000
1!
0#
#968000
0!
1#
#969000
1!
0#
#970000
0!
1#
#971000
1!
0#
#972000
0!
1#
#973000
1!
0#
#974000
0!
1#
#975000
1!
0#
#976000
0!
1#
#977000
1!
0#
#978000
0!
1#
#979000
1!
0#
#980000
0!
1#
#981000
1!
0#
#982000
0!
1#
#983000
1!
0#
#984000
0!
1#
#985000
1!
0#
#986000
0!
1#
#987000
1!
0#
#988000
0!
1#
#989000
1!
0#
#990000
0!
1#
#991000
1!
0#
#992000
0!
1#
#993000
1!
0#
#994000
0!
1#
#995000
1!
0#
#996000
0!
1#
#997000
1!
0#
#998000
0!
1#
#999000
1!
0#
